C:\betterNBP\src\main\java\com\example\betterNBP\models\Log.java
C:\betterNBP\src\main\java\com\example\betterNBP\models\AnswerDto.java
C:\betterNBP\src\main\java\com\example\betterNBP\models\ExceptionMessage.java
C:\betterNBP\src\main\java\com\example\betterNBP\service\LogService.java
C:\betterNBP\src\main\java\com\example\betterNBP\clients\WebClient.java
C:\betterNBP\src\main\java\com\example\betterNBP\models\TechDto.java
C:\betterNBP\src\main\java\com\example\betterNBP\repositories\LogRepository.java
C:\betterNBP\src\main\java\com\example\betterNBP\models\RateDto.java
C:\betterNBP\src\main\java\com\example\betterNBP\exceptions\ConnectionException.java
C:\betterNBP\src\main\java\com\example\betterNBP\exceptions\CurrencyException.java
C:\betterNBP\src\main\java\com\example\betterNBP\BetterNbpApplication.java
C:\betterNBP\src\main\java\com\example\betterNBP\controllers\RateController.java
C:\betterNBP\src\main\java\com\example\betterNBP\service\RateService.java
